{
    "bogged down": {
        "__dataclass__": "AfflictionData",
        "category": "BANE",
        "description": "It weakens mundane defence and makes you a little bit slower.",
        "effects": {
            "affect_stat": {
                "__dataclass__": "EffectData",
                "accuracy": 0,
                "affect_stat_amount": -25,
                "affliction_name": "None",
                "aspect_name": "None",
                "damage": 0,
                "damage_type": null,
                "duration": 0,
                "effect_type": "affect_stat",
                "mod_amount": 0,
                "mod_stat": null,
                "required_tags": [],
                "stat_to_affect": "bustle",
                "stat_to_target": null
            }
        },
        "icon": "placeholder/icon_00.png",
        "name": "bogged down",
        "trigger_event": "PASSIVE"
    },
    "flaming": {
        "__dataclass__": "AfflictionData",
        "category": "BANE",
        "description": "It does damage.",
        "effects": {
            "damage": {
                "__dataclass__": "EffectData",
                "accuracy": 10,
                "affect_stat_amount": 0,
                "affliction_name": "None",
                "aspect_name": "None",
                "damage": 15,
                "damage_type": "burn",
                "duration": 0,
                "effect_type": "damage",
                "mod_amount": 0,
                "mod_stat": null,
                "required_tags": [
                    "other_entity"
                ],
                "stat_to_affect": null,
                "stat_to_target": "bustle"
            }
        },
        "icon": "placeholder/icon_00.png",
        "name": "flaming",
        "trigger_event": "ACTION"
    },
    "myopic": {
        "__dataclass__": "AfflictionData",
        "category": "BANE",
        "description": "You can't see very well.",
        "effects": {
            "affect_stat": {
                "__dataclass__": "EffectData",
                "accuracy": 0,
                "affect_stat_amount": -2,
                "affliction_name": "None",
                "aspect_name": "None",
                "damage": 0,
                "damage_type": null,
                "duration": 0,
                "effect_type": "affect_stat",
                "mod_amount": 0,
                "mod_stat": null,
                "required_tags": [],
                "stat_to_affect": "sight_range",
                "stat_to_target": null
            }
        },
        "icon": "placeholder/icon_00.png",
        "name": "myopic",
        "trigger_event": "passive"
    }
}